^C:\USERS\NICK\DOCUMENTS\VISUAL STUDIO 2015\PROJECTS\SQUARECOUNTER\SQUARECOUNTER\CURVE.CPP|C:\USERS\NICK\DOCUMENTS\VISUAL STUDIO 2015\PROJECTS\SQUARECOUNTER\SQUARECOUNTER\CURVEPAINTER.CPP|C:\USERS\NICK\DOCUMENTS\VISUAL STUDIO 2015\PROJECTS\SQUARECOUNTER\SQUARECOUNTER\GENERATEDFILES\DEBUG\MOC_CURVE.CPP|C:\USERS\NICK\DOCUMENTS\VISUAL STUDIO 2015\PROJECTS\SQUARECOUNTER\SQUARECOUNTER\GENERATEDFILES\DEBUG\MOC_CURVEPAINTER.CPP|C:\USERS\NICK\DOCUMENTS\VISUAL STUDIO 2015\PROJECTS\SQUARECOUNTER\SQUARECOUNTER\GENERATEDFILES\DEBUG\MOC_SQUARECOUNTER.CPP|C:\USERS\NICK\DOCUMENTS\VISUAL STUDIO 2015\PROJECTS\SQUARECOUNTER\SQUARECOUNTER\MAIN.CPP|C:\USERS\NICK\DOCUMENTS\VISUAL STUDIO 2015\PROJECTS\SQUARECOUNTER\SQUARECOUNTER\SQUARECOUNTER.CPP
C:\USERS\NICK\DOCUMENTS\VISUAL STUDIO 2015\PROJECTS\SQUARECOUNTER\SQUARECOUNTER\DEBUG\VC140.PDB
C:\USERS\NICK\DOCUMENTS\VISUAL STUDIO 2015\PROJECTS\SQUARECOUNTER\SQUARECOUNTER\DEBUG\SQUARECOUNTER.OBJ
C:\USERS\NICK\DOCUMENTS\VISUAL STUDIO 2015\PROJECTS\SQUARECOUNTER\SQUARECOUNTER\DEBUG\MAIN.OBJ
C:\USERS\NICK\DOCUMENTS\VISUAL STUDIO 2015\PROJECTS\SQUARECOUNTER\SQUARECOUNTER\DEBUG\MOC_SQUARECOUNTER.OBJ
C:\USERS\NICK\DOCUMENTS\VISUAL STUDIO 2015\PROJECTS\SQUARECOUNTER\SQUARECOUNTER\DEBUG\MOC_CURVEPAINTER.OBJ
C:\USERS\NICK\DOCUMENTS\VISUAL STUDIO 2015\PROJECTS\SQUARECOUNTER\SQUARECOUNTER\DEBUG\MOC_CURVE.OBJ
C:\USERS\NICK\DOCUMENTS\VISUAL STUDIO 2015\PROJECTS\SQUARECOUNTER\SQUARECOUNTER\DEBUG\CURVEPAINTER.OBJ
C:\USERS\NICK\DOCUMENTS\VISUAL STUDIO 2015\PROJECTS\SQUARECOUNTER\SQUARECOUNTER\DEBUG\CURVE.OBJ
^C:\USERS\NICK\DOCUMENTS\VISUAL STUDIO 2015\PROJECTS\SQUARECOUNTER\SQUARECOUNTER\CURVE.CPP
C:\USERS\NICK\DOCUMENTS\VISUAL STUDIO 2015\PROJECTS\SQUARECOUNTER\SQUARECOUNTER\DEBUG\VC140.PDB
^C:\USERS\NICK\DOCUMENTS\VISUAL STUDIO 2015\PROJECTS\SQUARECOUNTER\SQUARECOUNTER\GENERATEDFILES\DEBUG\MOC_CURVE.CPP
C:\USERS\NICK\DOCUMENTS\VISUAL STUDIO 2015\PROJECTS\SQUARECOUNTER\SQUARECOUNTER\DEBUG\VC140.PDB
^C:\USERS\NICK\DOCUMENTS\VISUAL STUDIO 2015\PROJECTS\SQUARECOUNTER\SQUARECOUNTER\GENERATEDFILES\QRC_SQUARECOUNTER.CPP
C:\USERS\NICK\DOCUMENTS\VISUAL STUDIO 2015\PROJECTS\SQUARECOUNTER\SQUARECOUNTER\DEBUG\VC140.PDB
C:\USERS\NICK\DOCUMENTS\VISUAL STUDIO 2015\PROJECTS\SQUARECOUNTER\SQUARECOUNTER\DEBUG\QRC_SQUARECOUNTER.OBJ
^C:\USERS\NICK\DOCUMENTS\VISUAL STUDIO 2015\PROJECTS\SQUARECOUNTER\SQUARECOUNTER\GENERATEDFILES\DEBUG\MOC_SQUARECOUNTER.CPP|C:\USERS\NICK\DOCUMENTS\VISUAL STUDIO 2015\PROJECTS\SQUARECOUNTER\SQUARECOUNTER\MAIN.CPP|C:\USERS\NICK\DOCUMENTS\VISUAL STUDIO 2015\PROJECTS\SQUARECOUNTER\SQUARECOUNTER\SQUARECOUNTER.CPP
C:\USERS\NICK\DOCUMENTS\VISUAL STUDIO 2015\PROJECTS\SQUARECOUNTER\SQUARECOUNTER\DEBUG\VC140.PDB
C:\USERS\NICK\DOCUMENTS\VISUAL STUDIO 2015\PROJECTS\SQUARECOUNTER\SQUARECOUNTER\DEBUG\MAIN.OBJ
C:\USERS\NICK\DOCUMENTS\VISUAL STUDIO 2015\PROJECTS\SQUARECOUNTER\SQUARECOUNTER\DEBUG\MOC_SQUARECOUNTER.OBJ
^C:\USERS\NICK\DOCUMENTS\VISUAL STUDIO 2015\PROJECTS\SQUARECOUNTER\SQUARECOUNTER\BEZIER3.CPP|C:\USERS\NICK\DOCUMENTS\VISUAL STUDIO 2015\PROJECTS\SQUARECOUNTER\SQUARECOUNTER\CURVEPAINTER.CPP
C:\USERS\NICK\DOCUMENTS\VISUAL STUDIO 2015\PROJECTS\SQUARECOUNTER\SQUARECOUNTER\DEBUG\VC140.PDB
C:\USERS\NICK\DOCUMENTS\VISUAL STUDIO 2015\PROJECTS\SQUARECOUNTER\SQUARECOUNTER\DEBUG\CURVEPAINTER.OBJ
C:\USERS\NICK\DOCUMENTS\VISUAL STUDIO 2015\PROJECTS\SQUARECOUNTER\SQUARECOUNTER\DEBUG\BEZIER3.OBJ
^C:\USERS\NICK\DOCUMENTS\VISUAL STUDIO 2015\PROJECTS\SQUARECOUNTER\SQUARECOUNTER\BEZIER3.CPP|C:\USERS\NICK\DOCUMENTS\VISUAL STUDIO 2015\PROJECTS\SQUARECOUNTER\SQUARECOUNTER\CURVEPAINTER.CPP|C:\USERS\NICK\DOCUMENTS\VISUAL STUDIO 2015\PROJECTS\SQUARECOUNTER\SQUARECOUNTER\GENERATEDFILES\DEBUG\MOC_CURVEPAINTER.CPP|C:\USERS\NICK\DOCUMENTS\VISUAL STUDIO 2015\PROJECTS\SQUARECOUNTER\SQUARECOUNTER\GENERATEDFILES\DEBUG\MOC_SQUARECOUNTER.CPP|C:\USERS\NICK\DOCUMENTS\VISUAL STUDIO 2015\PROJECTS\SQUARECOUNTER\SQUARECOUNTER\MAIN.CPP|C:\USERS\NICK\DOCUMENTS\VISUAL STUDIO 2015\PROJECTS\SQUARECOUNTER\SQUARECOUNTER\SQUARECOUNTER.CPP
C:\USERS\NICK\DOCUMENTS\VISUAL STUDIO 2015\PROJECTS\SQUARECOUNTER\SQUARECOUNTER\DEBUG\VC140.PDB
C:\USERS\NICK\DOCUMENTS\VISUAL STUDIO 2015\PROJECTS\SQUARECOUNTER\SQUARECOUNTER\DEBUG\SQUARECOUNTER.OBJ
C:\USERS\NICK\DOCUMENTS\VISUAL STUDIO 2015\PROJECTS\SQUARECOUNTER\SQUARECOUNTER\DEBUG\MAIN.OBJ
C:\USERS\NICK\DOCUMENTS\VISUAL STUDIO 2015\PROJECTS\SQUARECOUNTER\SQUARECOUNTER\DEBUG\MOC_SQUARECOUNTER.OBJ
C:\USERS\NICK\DOCUMENTS\VISUAL STUDIO 2015\PROJECTS\SQUARECOUNTER\SQUARECOUNTER\DEBUG\MOC_CURVEPAINTER.OBJ
C:\USERS\NICK\DOCUMENTS\VISUAL STUDIO 2015\PROJECTS\SQUARECOUNTER\SQUARECOUNTER\DEBUG\CURVEPAINTER.OBJ
C:\USERS\NICK\DOCUMENTS\VISUAL STUDIO 2015\PROJECTS\SQUARECOUNTER\SQUARECOUNTER\DEBUG\BEZIER3.OBJ
^C:\USERS\NICK\DOCUMENTS\VISUAL STUDIO 2015\PROJECTS\SQUARECOUNTER\SQUARECOUNTER\BEZIER3.CPP
C:\USERS\NICK\DOCUMENTS\VISUAL STUDIO 2015\PROJECTS\SQUARECOUNTER\SQUARECOUNTER\DEBUG\VC140.PDB
^C:\USERS\NICK\DOCUMENTS\VISUAL STUDIO 2015\PROJECTS\SQUARECOUNTER\SQUARECOUNTER\CURVEPAINTER.CPP
C:\USERS\NICK\DOCUMENTS\VISUAL STUDIO 2015\PROJECTS\SQUARECOUNTER\SQUARECOUNTER\DEBUG\VC140.PDB
^C:\USERS\NICK\DOCUMENTS\VISUAL STUDIO 2015\PROJECTS\SQUARECOUNTER\SQUARECOUNTER\GENERATEDFILES\DEBUG\MOC_CURVEPAINTER.CPP
C:\USERS\NICK\DOCUMENTS\VISUAL STUDIO 2015\PROJECTS\SQUARECOUNTER\SQUARECOUNTER\DEBUG\VC140.PDB
^C:\USERS\NICK\DOCUMENTS\VISUAL STUDIO 2015\PROJECTS\SQUARECOUNTER\SQUARECOUNTER\GENERATEDFILES\DEBUG\MOC_SQUARECOUNTER.CPP
C:\USERS\NICK\DOCUMENTS\VISUAL STUDIO 2015\PROJECTS\SQUARECOUNTER\SQUARECOUNTER\DEBUG\VC140.PDB
^C:\USERS\NICK\DOCUMENTS\VISUAL STUDIO 2015\PROJECTS\SQUARECOUNTER\SQUARECOUNTER\MAIN.CPP
C:\USERS\NICK\DOCUMENTS\VISUAL STUDIO 2015\PROJECTS\SQUARECOUNTER\SQUARECOUNTER\DEBUG\VC140.PDB
^C:\USERS\NICK\DOCUMENTS\VISUAL STUDIO 2015\PROJECTS\SQUARECOUNTER\SQUARECOUNTER\SQUARECOUNTER.CPP
C:\USERS\NICK\DOCUMENTS\VISUAL STUDIO 2015\PROJECTS\SQUARECOUNTER\SQUARECOUNTER\DEBUG\VC140.PDB
